module gitlab.com/ratchaphonboss/kubeops-contract

go 1.17

require (
	github.com/gin-gonic/gin v1.7.7
	github.com/joho/godotenv v1.4.0
	golang.org/x/time v0.0.0-20220224211638-0e9765cccd65
)

require (
	github.com/gin-contrib/sse v0.1.0 // indirect
	github.com/go-playground/locales v0.14.0 // indirect
	github.com/go-playground/universal-translator v0.18.0 // indirect
	github.com/go-playground/validator/v10 v10.10.1 // indirect
	github.com/golang/protobuf v1.5.2 // indirect
	github.com/json-iterator/go v1.1.12 // indirect
	github.com/leodido/go-urn v1.2.1 // indirect
	github.com/mattn/go-isatty v0.0.14 // indirect
	github.com/modern-go/concurrent v0.0.0-20180306012644-bacd9c7ef1dd // indirect
	github.com/modern-go/reflect2 v1.0.2 // indirect
	github.com/ugorji/go/codec v1.2.7 // indirect
	golang.org/x/crypto v0.0.0-20220307211146-efcb8507fb70 // indirect
	golang.org/x/sys v0.0.0-20220307203707-22a9840ba4d7 // indirect
	golang.org/x/text v0.3.7 // indirect
	google.golang.org/protobuf v1.27.1 // indirect
	gopkg.in/yaml.v2 v2.4.0 // indirect
)
